%!PS-Adobe-3.0 EPSF-3.0
%%Title: imgout/4_jansen-node-positions-togther.eps
%%Creator: matplotlib version 3.3.2, http://matplotlib.org/
%%CreationDate: Wed Dec  9 12:56:05 2020
%%Orientation: portrait
%%BoundingBox: 18.0 108.0 594.0 684.0
%%EndComments
%%BeginProlog
/mpldict 8 dict def
mpldict begin
/m { moveto } bind def
/l { lineto } bind def
/r { rlineto } bind def
/c { curveto } bind def
/cl { closepath } bind def
/box {
      m
      1 index 0 r
      0 exch r
      neg 0 r
      cl
    } bind def
/clipbox {
      box
      clip
      newpath
    } bind def
%!PS-Adobe-3.0 Resource-Font
%%Title: DejaVu Sans
%%Copyright: Copyright (c) 2003 by Bitstream, Inc. All Rights Reserved. Copyright (c) 2006 by Tavmjong Bah. All Rights Reserved. DejaVu changes are in public domain 
%%Creator: Converted from TrueType to type 3 by PPR
25 dict begin
/_d{bind def}bind def
/_m{moveto}_d
/_l{lineto}_d
/_cl{closepath eofill}_d
/_c{curveto}_d
/_sc{7 -1 roll{setcachedevice}{pop pop pop pop pop pop}ifelse}_d
/_e{exec}_d
/FontName /DejaVuSans def
/PaintType 0 def
/FontMatrix[.001 0 0 .001 0 0]def
/FontBBox[-1021 -463 1793 1232]def
/FontType 3 def
/Encoding [ /space /parenleft /parenright /period /zero /one /two /four /six /eight /N /a /c /d /e /i /j /m /o /r /s /t /x /y /minus ] def
/FontInfo 10 dict dup begin
/FamilyName (DejaVu Sans) def
/FullName (DejaVu Sans) def
/Notice (Copyright (c) 2003 by Bitstream, Inc. All Rights Reserved. Copyright (c) 2006 by Tavmjong Bah. All Rights Reserved. DejaVu changes are in public domain ) def
/Weight (Book) def
/Version (Version 2.35) def
/ItalicAngle 0.0 def
/isFixedPitch false def
/UnderlinePosition -130 def
/UnderlineThickness 90 def
end readonly def
/CharStrings 26 dict dup begin
/.notdef 0 def
/space{318 0 0 0 0 0 _sc
}_d
/parenleft{390 0 86 -131 310 759 _sc
310 759 _m
266 683 234 609 213 536 _c
191 463 181 389 181 314 _c
181 238 191 164 213 91 _c
234 17 266 -56 310 -131 _c
232 -131 _l
183 -54 146 20 122 94 _c
98 168 86 241 86 314 _c
86 386 98 459 122 533 _c
146 607 182 682 232 759 _c
310 759 _l
_cl}_d
/parenright{390 0 80 -131 304 759 _sc
80 759 _m
158 759 _l
206 682 243 607 267 533 _c
291 459 304 386 304 314 _c
304 241 291 168 267 94 _c
243 20 206 -54 158 -131 _c
80 -131 _l
123 -56 155 17 177 91 _c
198 164 209 238 209 314 _c
209 389 198 463 177 536 _c
155 609 123 683 80 759 _c
_cl}_d
/period{318 0 107 0 210 124 _sc
107 124 _m
210 124 _l
210 0 _l
107 0 _l
107 124 _l
_cl}_d
/zero{636 0 66 -13 570 742 _sc
318 664 _m
267 664 229 639 203 589 _c
177 539 165 464 165 364 _c
165 264 177 189 203 139 _c
229 89 267 64 318 64 _c
369 64 407 89 433 139 _c
458 189 471 264 471 364 _c
471 464 458 539 433 589 _c
407 639 369 664 318 664 _c
318 742 _m
399 742 461 709 505 645 _c
548 580 570 486 570 364 _c
570 241 548 147 505 83 _c
461 19 399 -13 318 -13 _c
236 -13 173 19 130 83 _c
87 147 66 241 66 364 _c
66 486 87 580 130 645 _c
173 709 236 742 318 742 _c
_cl}_d
/one{636 0 110 0 544 729 _sc
124 83 _m
285 83 _l
285 639 _l
110 604 _l
110 694 _l
284 729 _l
383 729 _l
383 83 _l
544 83 _l
544 0 _l
124 0 _l
124 83 _l
_cl}_d
/two{{636 0 73 0 536 742 _sc
192 83 _m
536 83 _l
536 0 _l
73 0 _l
73 83 _l
110 121 161 173 226 239 _c
290 304 331 346 348 365 _c
380 400 402 430 414 455 _c
426 479 433 504 433 528 _c
433 566 419 598 392 622 _c
365 646 330 659 286 659 _c
255 659 222 653 188 643 _c
154 632 117 616 78 594 _c
78 694 _l
118 710 155 722 189 730 _c
223 738 255 742 284 742 _c
}_e{359 742 419 723 464 685 _c
509 647 532 597 532 534 _c
532 504 526 475 515 449 _c
504 422 484 390 454 354 _c
446 344 420 317 376 272 _c
332 227 271 164 192 83 _c
_cl}_e}_d
/four{636 0 49 0 580 729 _sc
378 643 _m
129 254 _l
378 254 _l
378 643 _l
352 729 _m
476 729 _l
476 254 _l
580 254 _l
580 172 _l
476 172 _l
476 0 _l
378 0 _l
378 172 _l
49 172 _l
49 267 _l
352 729 _l
_cl}_d
/six{{636 0 70 -13 573 742 _sc
330 404 _m
286 404 251 388 225 358 _c
199 328 186 286 186 234 _c
186 181 199 139 225 109 _c
251 79 286 64 330 64 _c
374 64 409 79 435 109 _c
461 139 474 181 474 234 _c
474 286 461 328 435 358 _c
409 388 374 404 330 404 _c
526 713 _m
526 623 _l
501 635 476 644 451 650 _c
425 656 400 659 376 659 _c
310 659 260 637 226 593 _c
}_e{192 549 172 482 168 394 _c
187 422 211 444 240 459 _c
269 474 301 482 336 482 _c
409 482 467 459 509 415 _c
551 371 573 310 573 234 _c
573 159 550 99 506 54 _c
462 9 403 -13 330 -13 _c
246 -13 181 19 137 83 _c
92 147 70 241 70 364 _c
70 479 97 571 152 639 _c
206 707 280 742 372 742 _c
396 742 421 739 447 735 _c
472 730 498 723 526 713 _c
_cl}_e}_d
/eight{{636 0 68 -13 568 742 _sc
318 346 _m
271 346 234 333 207 308 _c
180 283 167 249 167 205 _c
167 161 180 126 207 101 _c
234 76 271 64 318 64 _c
364 64 401 76 428 102 _c
455 127 469 161 469 205 _c
469 249 455 283 429 308 _c
402 333 365 346 318 346 _c
219 388 _m
177 398 144 418 120 447 _c
96 476 85 511 85 553 _c
85 611 105 657 147 691 _c
188 725 245 742 318 742 _c
}_e{390 742 447 725 489 691 _c
530 657 551 611 551 553 _c
551 511 539 476 515 447 _c
491 418 459 398 417 388 _c
464 377 501 355 528 323 _c
554 291 568 251 568 205 _c
568 134 546 80 503 43 _c
459 5 398 -13 318 -13 _c
237 -13 175 5 132 43 _c
89 80 68 134 68 205 _c
68 251 81 291 108 323 _c
134 355 171 377 219 388 _c
183 544 _m
183 506 194 476 218 455 _c
}_e{242 434 275 424 318 424 _c
360 424 393 434 417 455 _c
441 476 453 506 453 544 _c
453 582 441 611 417 632 _c
393 653 360 664 318 664 _c
275 664 242 653 218 632 _c
194 611 183 582 183 544 _c
_cl}_e}_d
/N{748 0 98 0 650 729 _sc
98 729 _m
231 729 _l
554 119 _l
554 729 _l
650 729 _l
650 0 _l
517 0 _l
194 610 _l
194 0 _l
98 0 _l
98 729 _l
_cl}_d
/a{{613 0 60 -13 522 560 _sc
343 275 _m
270 275 220 266 192 250 _c
164 233 150 205 150 165 _c
150 133 160 107 181 89 _c
202 70 231 61 267 61 _c
317 61 357 78 387 114 _c
417 149 432 196 432 255 _c
432 275 _l
343 275 _l
522 312 _m
522 0 _l
432 0 _l
432 83 _l
411 49 385 25 355 10 _c
325 -5 287 -13 243 -13 _c
187 -13 142 2 109 33 _c
76 64 60 106 60 159 _c
}_e{60 220 80 266 122 298 _c
163 329 224 345 306 345 _c
432 345 _l
432 354 _l
432 395 418 427 391 450 _c
364 472 326 484 277 484 _c
245 484 215 480 185 472 _c
155 464 127 453 100 439 _c
100 522 _l
132 534 164 544 195 550 _c
226 556 256 560 286 560 _c
365 560 424 539 463 498 _c
502 457 522 395 522 312 _c
_cl}_e}_d
/c{{550 0 55 -13 488 560 _sc
488 526 _m
488 442 _l
462 456 437 466 411 473 _c
385 480 360 484 334 484 _c
276 484 230 465 198 428 _c
166 391 150 339 150 273 _c
150 206 166 154 198 117 _c
230 80 276 62 334 62 _c
360 62 385 65 411 72 _c
437 79 462 90 488 104 _c
488 21 _l
462 9 436 0 410 -5 _c
383 -10 354 -13 324 -13 _c
242 -13 176 12 128 64 _c
}_e{79 115 55 185 55 273 _c
55 362 79 432 128 483 _c
177 534 244 560 330 560 _c
358 560 385 557 411 551 _c
437 545 463 537 488 526 _c
_cl}_e}_d
/d{{635 0 55 -13 544 760 _sc
454 464 _m
454 760 _l
544 760 _l
544 0 _l
454 0 _l
454 82 _l
435 49 411 25 382 10 _c
353 -5 319 -13 279 -13 _c
213 -13 159 13 117 65 _c
75 117 55 187 55 273 _c
55 359 75 428 117 481 _c
159 533 213 560 279 560 _c
319 560 353 552 382 536 _c
411 520 435 496 454 464 _c
148 273 _m
148 207 161 155 188 117 _c
215 79 253 61 301 61 _c
}_e{348 61 385 79 413 117 _c
440 155 454 207 454 273 _c
454 339 440 390 413 428 _c
385 466 348 485 301 485 _c
253 485 215 466 188 428 _c
161 390 148 339 148 273 _c
_cl}_e}_d
/e{{615 0 55 -13 562 560 _sc
562 296 _m
562 252 _l
149 252 _l
153 190 171 142 205 110 _c
238 78 284 62 344 62 _c
378 62 412 66 444 74 _c
476 82 509 95 541 113 _c
541 28 _l
509 14 476 3 442 -3 _c
408 -9 373 -13 339 -13 _c
251 -13 182 12 131 62 _c
80 112 55 181 55 268 _c
55 357 79 428 127 481 _c
175 533 241 560 323 560 _c
397 560 455 536 498 489 _c
}_e{540 441 562 377 562 296 _c
472 322 _m
471 371 457 410 431 440 _c
404 469 368 484 324 484 _c
274 484 234 469 204 441 _c
174 413 156 373 152 322 _c
472 322 _l
_cl}_e}_d
/i{278 0 94 0 184 760 _sc
94 547 _m
184 547 _l
184 0 _l
94 0 _l
94 547 _l
94 760 _m
184 760 _l
184 646 _l
94 646 _l
94 760 _l
_cl}_d
/j{278 0 -17 -207 184 760 _sc
94 547 _m
184 547 _l
184 -9 _l
184 -78 170 -128 144 -160 _c
117 -191 74 -207 16 -207 _c
-17 -207 _l
-17 -131 _l
6 -131 _l
40 -131 63 -123 75 -107 _c
87 -91 94 -58 94 -9 _c
94 547 _l
94 760 _m
184 760 _l
184 646 _l
94 646 _l
94 760 _l
_cl}_d
/m{{974 0 91 0 889 560 _sc
520 442 _m
542 482 569 511 600 531 _c
631 550 668 560 711 560 _c
767 560 811 540 842 500 _c
873 460 889 403 889 330 _c
889 0 _l
799 0 _l
799 327 _l
799 379 789 418 771 444 _c
752 469 724 482 686 482 _c
639 482 602 466 575 435 _c
548 404 535 362 535 309 _c
535 0 _l
445 0 _l
445 327 _l
445 379 435 418 417 444 _c
398 469 369 482 331 482 _c
}_e{285 482 248 466 221 435 _c
194 404 181 362 181 309 _c
181 0 _l
91 0 _l
91 547 _l
181 547 _l
181 462 _l
201 495 226 520 255 536 _c
283 552 317 560 357 560 _c
397 560 430 550 458 530 _c
486 510 506 480 520 442 _c
_cl}_e}_d
/o{612 0 55 -13 557 560 _sc
306 484 _m
258 484 220 465 192 427 _c
164 389 150 338 150 273 _c
150 207 163 156 191 118 _c
219 80 257 62 306 62 _c
354 62 392 80 420 118 _c
448 156 462 207 462 273 _c
462 337 448 389 420 427 _c
392 465 354 484 306 484 _c
306 560 _m
384 560 445 534 490 484 _c
534 433 557 363 557 273 _c
557 183 534 113 490 63 _c
445 12 384 -13 306 -13 _c
227 -13 165 12 121 63 _c
77 113 55 183 55 273 _c
55 363 77 433 121 484 _c
165 534 227 560 306 560 _c
_cl}_d
/r{411 0 91 0 411 560 _sc
411 463 _m
401 469 390 473 378 476 _c
366 478 353 480 339 480 _c
288 480 249 463 222 430 _c
194 397 181 350 181 288 _c
181 0 _l
91 0 _l
91 547 _l
181 547 _l
181 462 _l
199 495 224 520 254 536 _c
284 552 321 560 365 560 _c
371 560 378 559 386 559 _c
393 558 401 557 411 555 _c
411 463 _l
_cl}_d
/s{{521 0 54 -13 472 560 _sc
443 531 _m
443 446 _l
417 458 391 468 364 475 _c
336 481 308 485 279 485 _c
234 485 200 478 178 464 _c
156 450 145 430 145 403 _c
145 382 153 366 169 354 _c
185 342 217 330 265 320 _c
296 313 _l
360 299 405 279 432 255 _c
458 230 472 195 472 151 _c
472 100 452 60 412 31 _c
372 1 316 -13 246 -13 _c
216 -13 186 -10 154 -5 _c
}_e{122 0 89 8 54 20 _c
54 113 _l
87 95 120 82 152 74 _c
184 65 216 61 248 61 _c
290 61 323 68 346 82 _c
368 96 380 117 380 144 _c
380 168 371 187 355 200 _c
339 213 303 226 247 238 _c
216 245 _l
160 257 119 275 95 299 _c
70 323 58 356 58 399 _c
58 450 76 490 112 518 _c
148 546 200 560 268 560 _c
301 560 332 557 362 552 _c
391 547 418 540 443 531 _c
}_e{_cl}_e}_d
/t{392 0 27 0 368 702 _sc
183 702 _m
183 547 _l
368 547 _l
368 477 _l
183 477 _l
183 180 _l
183 135 189 106 201 94 _c
213 81 238 75 276 75 _c
368 75 _l
368 0 _l
276 0 _l
206 0 158 13 132 39 _c
106 65 93 112 93 180 _c
93 477 _l
27 477 _l
27 547 _l
93 547 _l
93 702 _l
183 702 _l
_cl}_d
/x{592 0 29 0 559 547 _sc
549 547 _m
351 281 _l
559 0 _l
453 0 _l
294 215 _l
135 0 _l
29 0 _l
241 286 _l
47 547 _l
153 547 _l
298 352 _l
443 547 _l
549 547 _l
_cl}_d
/y{592 0 30 -207 562 547 _sc
322 -50 _m
296 -114 271 -157 247 -177 _c
223 -197 191 -207 151 -207 _c
79 -207 _l
79 -132 _l
132 -132 _l
156 -132 175 -126 189 -114 _c
203 -102 218 -75 235 -31 _c
251 9 _l
30 547 _l
125 547 _l
296 119 _l
467 547 _l
562 547 _l
322 -50 _l
_cl}_d
/minus{838 0 106 272 732 355 _sc
106 355 _m
732 355 _l
732 272 _l
106 272 _l
106 355 _l
_cl}_d
end readonly def

/BuildGlyph
 {exch begin
 CharStrings exch
 2 copy known not{pop /.notdef}if
 true 3 1 roll get exec
 end}_d

/BuildChar {
 1 index /Encoding get exch get
 1 index /BuildGlyph get exec
}_d

FontName currentdict end definefont pop
end
%%EndProlog
mpldict begin
18 108 translate
576 576 0 0 clipbox
gsave
0 0 m
576 0 l
576 576 l
0 576 l
cl
grestore
gsave
72 72 m
518.4 72 l
518.4 506.88 l
72 506.88 l
cl
1.000 setgray
fill
grestore
0.800 setlinewidth
1 setlinejoin
0 setlinecap
[] 0 setdash
0.000 setgray
gsave
/o {
gsave
newpath
translate
0.8 setlinewidth
1 setlinejoin
0 setlinecap
0 0 m
0 -3.5 l

gsave
0.000 setgray
fill
grestore
stroke
grestore
} bind def
75.6819 72 o
grestore
/DejaVuSans findfont
10.000 scalefont
setfont
gsave
63.541271 57.406250 translate
0.000000 rotate
0.000000 0 m /minus glyphshow
8.378906 0 m /zero glyphshow
14.741211 0 m /period glyphshow
17.919922 0 m /two glyphshow
grestore
gsave
/o {
gsave
newpath
translate
0.8 setlinewidth
1 setlinejoin
0 setlinecap
0 0 m
0 -3.5 l

gsave
0.000 setgray
fill
grestore
stroke
grestore
} bind def
142.118 72 o
grestore
gsave
134.164825 57.406250 translate
0.000000 rotate
0.000000 0 m /zero glyphshow
6.362305 0 m /period glyphshow
9.541016 0 m /zero glyphshow
grestore
gsave
/o {
gsave
newpath
translate
0.8 setlinewidth
1 setlinejoin
0 setlinecap
0 0 m
0 -3.5 l

gsave
0.000 setgray
fill
grestore
stroke
grestore
} bind def
208.554 72 o
grestore
gsave
200.600879 57.406250 translate
0.000000 rotate
0.000000 0 m /zero glyphshow
6.362305 0 m /period glyphshow
9.541016 0 m /two glyphshow
grestore
gsave
/o {
gsave
newpath
translate
0.8 setlinewidth
1 setlinejoin
0 setlinecap
0 0 m
0 -3.5 l

gsave
0.000 setgray
fill
grestore
stroke
grestore
} bind def
274.99 72 o
grestore
gsave
267.036934 57.406250 translate
0.000000 rotate
0.000000 0 m /zero glyphshow
6.362305 0 m /period glyphshow
9.541016 0 m /four glyphshow
grestore
gsave
/o {
gsave
newpath
translate
0.8 setlinewidth
1 setlinejoin
0 setlinecap
0 0 m
0 -3.5 l

gsave
0.000 setgray
fill
grestore
stroke
grestore
} bind def
341.426 72 o
grestore
gsave
333.472988 57.406250 translate
0.000000 rotate
0.000000 0 m /zero glyphshow
6.362305 0 m /period glyphshow
9.541016 0 m /six glyphshow
grestore
gsave
/o {
gsave
newpath
translate
0.8 setlinewidth
1 setlinejoin
0 setlinecap
0 0 m
0 -3.5 l

gsave
0.000 setgray
fill
grestore
stroke
grestore
} bind def
407.862 72 o
grestore
gsave
399.909042 57.406250 translate
0.000000 rotate
0.000000 0 m /zero glyphshow
6.362305 0 m /period glyphshow
9.541016 0 m /eight glyphshow
grestore
gsave
/o {
gsave
newpath
translate
0.8 setlinewidth
1 setlinejoin
0 setlinecap
0 0 m
0 -3.5 l

gsave
0.000 setgray
fill
grestore
stroke
grestore
} bind def
474.298 72 o
grestore
gsave
466.345097 57.406250 translate
0.000000 rotate
0.000000 0 m /one glyphshow
6.362305 0 m /period glyphshow
9.541016 0 m /zero glyphshow
grestore
gsave
281.864062 43.734375 translate
0.000000 rotate
0.000000 0 m /x glyphshow
5.917969 0 m /space glyphshow
9.096680 0 m /parenleft glyphshow
12.998047 0 m /m glyphshow
22.739258 0 m /parenright glyphshow
grestore
gsave
/o {
gsave
newpath
translate
0.8 setlinewidth
1 setlinejoin
0 setlinecap
-0 0 m
-3.5 0 l

gsave
0.000 setgray
fill
grestore
stroke
grestore
} bind def
72 129.036 o
grestore
gsave
40.718750 125.239007 translate
0.000000 rotate
0.000000 0 m /minus glyphshow
8.378906 0 m /zero glyphshow
14.741211 0 m /period glyphshow
17.919922 0 m /eight glyphshow
grestore
gsave
/o {
gsave
newpath
translate
0.8 setlinewidth
1 setlinejoin
0 setlinecap
-0 0 m
-3.5 0 l

gsave
0.000 setgray
fill
grestore
stroke
grestore
} bind def
72 192.022 o
grestore
gsave
40.718750 188.225259 translate
0.000000 rotate
0.000000 0 m /minus glyphshow
8.378906 0 m /zero glyphshow
14.741211 0 m /period glyphshow
17.919922 0 m /six glyphshow
grestore
gsave
/o {
gsave
newpath
translate
0.8 setlinewidth
1 setlinejoin
0 setlinecap
-0 0 m
-3.5 0 l

gsave
0.000 setgray
fill
grestore
stroke
grestore
} bind def
72 255.008 o
grestore
gsave
40.718750 251.211512 translate
0.000000 rotate
0.000000 0 m /minus glyphshow
8.378906 0 m /zero glyphshow
14.741211 0 m /period glyphshow
17.919922 0 m /four glyphshow
grestore
gsave
/o {
gsave
newpath
translate
0.8 setlinewidth
1 setlinejoin
0 setlinecap
-0 0 m
-3.5 0 l

gsave
0.000 setgray
fill
grestore
stroke
grestore
} bind def
72 317.995 o
grestore
gsave
40.718750 314.197764 translate
0.000000 rotate
0.000000 0 m /minus glyphshow
8.378906 0 m /zero glyphshow
14.741211 0 m /period glyphshow
17.919922 0 m /two glyphshow
grestore
gsave
/o {
gsave
newpath
translate
0.8 setlinewidth
1 setlinejoin
0 setlinecap
-0 0 m
-3.5 0 l

gsave
0.000 setgray
fill
grestore
stroke
grestore
} bind def
72 380.981 o
grestore
gsave
49.093750 377.184017 translate
0.000000 rotate
0.000000 0 m /zero glyphshow
6.362305 0 m /period glyphshow
9.541016 0 m /zero glyphshow
grestore
gsave
/o {
gsave
newpath
translate
0.8 setlinewidth
1 setlinejoin
0 setlinecap
-0 0 m
-3.5 0 l

gsave
0.000 setgray
fill
grestore
stroke
grestore
} bind def
72 443.967 o
grestore
gsave
49.093750 440.170269 translate
0.000000 rotate
0.000000 0 m /zero glyphshow
6.362305 0 m /period glyphshow
9.541016 0 m /two glyphshow
grestore
gsave
34.640625 276.104062 translate
90.000000 rotate
0.000000 0 m /y glyphshow
5.917969 0 m /space glyphshow
9.096680 0 m /parenleft glyphshow
12.998047 0 m /m glyphshow
22.739258 0 m /parenright glyphshow
grestore
1.500 setlinewidth
2 setlinecap
0.000 0.000 1.000 setrgbcolor
gsave
446.4 434.9 72 72 clipbox
191.944991 380.980892 m
191.833894 384.133698 l
191.5011 387.272444 l
190.94747 390.386044 l
190.175686 393.457624 l
189.188168 396.476267 l
187.988738 399.428283 l
186.580777 402.30287 l
184.971076 405.084033 l
183.16457 407.761388 l
181.168372 410.322169 l
178.992641 412.751834 l
176.644542 415.040991 l
174.133895 417.178343 l
171.471364 419.153192 l
168.66842 420.955497 l
165.737299 422.575932 l
162.69095 424.005936 l
159.545915 425.236728 l
156.316615 426.262009 l
153.014878 427.077062 l
149.66205 427.675988 l
146.27073 428.056227 l
142.856774 428.215388 l
139.439341 428.152272 l
136.034513 427.867176 l
132.661386 427.362006 l
129.332679 426.638975 l
126.06699 425.702434 l
122.879446 424.557358 l
119.784737 423.209675 l
116.799748 421.66774 l
113.935178 419.938117 l
111.206448 418.031193 l
108.62543 415.95677 l
106.203203 413.725333 l
103.950011 411.348 l
101.875223 408.836457 l
99.987305 406.202899 l
98.293788 403.459965 l
96.799948 400.617976 l
95.513077 397.692815 l
94.436899 394.69527 l
93.575653 391.638999 l
92.932594 388.537862 l
92.509986 385.405854 l
92.309094 382.257044 l
92.330314 379.102544 l
92.57355 375.956419 l
93.03772 372.8327 l
93.721496 369.742433 l
94.622438 366.699547 l
95.737118 363.717822 l
97.061128 360.810829 l
98.589096 357.991864 l
100.31641 355.271401 l
102.236343 352.662345 l
104.341225 350.177216 l
106.622462 347.828076 l
109.070562 345.626473 l
111.672695 343.585191 l
114.419913 341.712422 l
117.30029 340.017784 l
120.301167 338.510148 l
123.4063 337.198703 l
126.604471 336.089183 l
129.878148 335.188642 l
133.212187 334.501879 l
136.591093 334.032707 l
139.99596 333.78406 l
143.413924 333.757184 l
146.825789 333.952533 l
150.2155 334.369189 l
153.564059 335.004509 l
156.855862 335.854912 l
160.075645 336.915822 l
163.208549 338.1817 l
166.240191 339.646074 l
169.154096 341.299964 l
171.939891 343.136423 l
174.582648 345.144505 l
177.070954 347.313987 l
179.394216 349.633997 l
181.542703 352.093066 l
183.507572 354.679192 l
185.280908 357.3799 l
186.855739 360.182311 l
188.227251 363.075946 l
189.388842 366.044697 l
190.337261 369.077682 l
191.068858 372.16113 l
191.580969 375.28111 l
191.872096 378.426555 l
191.94499 380.977924 l
191.94499 380.977924 l
stroke
grestore
0.000 setgray
gsave
446.4 434.9 72 72 clipbox
324.597644 475.737049 m
329.716843 473.447161 l
334.728637 470.962015 l
336.55333 469.994377 l
329.722289 473.444594 l
324.607259 475.732974 l
319.393903 477.821876 l
314.089133 479.707922 l
308.703074 481.386895 l
303.246579 482.855015 l
297.729146 484.109475 l
292.157031 485.148436 l
286.544045 485.969001 l
280.896811 486.569971 l
275.228791 486.949748 l
269.548894 487.107755 l
263.863808 487.043612 l
258.187013 486.757325 l
252.527609 486.249398 l
246.897076 485.520987 l
241.304626 484.5735 l
235.759295 483.40864 l
230.271817 482.028893 l
224.853114 480.437434 l
219.510156 478.636718 l
214.253658 476.630754 l
209.092373 474.423409 l
206.085365 473.023518 l
214.248778 476.62878 l
219.499789 478.632995 l
224.837175 480.432409 l
230.253046 482.023778 l
235.737892 483.403702 l
241.277897 484.568428 l
246.868 485.516642 l
252.497398 486.246087 l
258.153892 486.755001 l
263.832109 487.042631 l
269.513629 487.108043 l
275.195565 486.951319 l
280.86285 486.57291 l
286.508391 485.973498 l
292.123155 485.154064 l
297.697564 484.116003 l
303.221182 482.861314 l
308.679151 481.393837 l
314.068243 479.714887 l
319.376745 477.828359 l
324.594088 475.738556 l
324.594088 475.738556 l
stroke
grestore
0.000 0.500 0.000 setrgbcolor
gsave
446.4 434.9 72 72 clipbox
393.236506 312.498274 m
391.232862 307.682026 l
389.021516 302.945321 l
388.147931 301.207861 l
391.233766 307.684076 l
393.238293 312.502841 l
395.031337 317.391514 l
396.610829 322.34317 l
397.974129 327.348131 l
399.119765 332.399409 l
400.046165 337.488748 l
400.752076 342.607752 l
401.236551 347.747497 l
401.499085 352.899514 l
401.539474 358.058856 l
401.357561 363.215189 l
400.953625 368.360493 l
400.328178 373.48702 l
399.482312 378.585143 l
398.416745 383.649266 l
397.133682 388.667924 l
395.63406 393.636406 l
393.920371 398.545006 l
391.994412 403.387186 l
389.859204 408.15391 l
387.518226 412.836346 l
384.973878 417.428485 l
383.023693 420.665367 l
387.519291 412.834323 l
389.861744 408.148549 l
391.998183 403.378263 l
393.92452 398.53389 l
395.638313 393.623332 l
397.137602 388.65385 l
398.42133 383.629575 l
399.48632 378.563822 l
400.331466 373.464154 l
400.955923 368.33754 l
401.358823 363.192966 l
401.539784 358.03608 l
401.498473 352.878772 l
401.234976 347.725823 l
400.749984 342.589726 l
400.04351 337.472149 l
399.117215 332.386936 l
397.972408 327.341231 l
396.609141 322.337462 l
395.030962 317.390421 l
393.239124 312.504967 l
393.237815 312.50162 l
393.237815 312.50162 l
stroke
grestore
1.000 0.000 0.000 setrgbcolor
gsave
446.4 434.9 72 72 clipbox
359.081723 267.430643 m
355.074188 263.908489 l
350.913541 260.547541 l
346.597959 257.347438 l
342.147079 254.32347 l
337.555383 251.472614 l
332.839211 248.806114 l
328.002822 246.327027 l
323.058139 244.04212 l
318.006735 241.952991 l
312.869467 240.068761 l
307.648592 238.39037 l
302.347931 236.919971 l
296.982769 235.662668 l
291.570412 234.622488 l
286.113259 233.799835 l
280.618467 233.196342 l
275.106221 232.814302 l
269.578449 232.653779 l
264.045825 232.715445 l
258.521479 232.999281 l
253.017173 233.504504 l
247.542341 234.229981 l
242.106189 235.174286 l
236.718546 236.335532 l
231.38944 237.711343 l
226.129128 239.298773 l
220.947717 241.094367 l
215.853971 243.094642 l
210.85718 245.295494 l
207.499197 246.914435 l
215.847927 243.097158 l
220.936237 241.098609 l
226.113713 239.303769 l
231.369922 237.716806 l
236.694985 236.341112 l
242.081982 235.178997 l
247.518443 234.23364 l
252.994544 233.507043 l
258.497168 233.001023 l
264.019881 232.716258 l
269.551724 232.653542 l
275.08112 232.813071 l
280.597856 233.194498 l
286.091841 233.797047 l
291.552095 234.619349 l
296.970178 235.659985 l
302.335478 236.916787 l
307.634697 238.386212 l
312.860056 240.065525 l
318.004742 241.952214 l
323.058358 244.042216 l
328.00681 246.32897 l
332.848632 248.811189 l
337.569758 251.481136 l
342.16376 254.33431 l
346.622966 257.365196 l
350.937877 260.566385 l
355.103308 263.933036 l
359.112417 267.458783 l
362.956954 271.135318 l
366.633252 274.958133 l
370.133495 278.918129 l
373.453442 283.009412 l
376.586808 287.223103 l
379.477498 291.472398 l
373.459711 283.017481 l
370.144591 278.931231 l
366.64622 274.9722 l
362.972106 271.15043 l
359.132807 267.477487 l
359.089024 267.437335 l
359.089024 267.437335 l
stroke
grestore
0.000 0.750 0.750 setrgbcolor
gsave
446.4 434.9 72 72 clipbox
463.536 207.834665 m
459.693066 204.371542 l
455.692184 201.065564 l
451.551949 197.933018 l
447.294017 194.989772 l
442.931888 192.244362 l
438.496829 189.714776 l
434.000871 187.405506 l
429.473283 185.328733 l
424.923103 183.485435 l
420.376671 181.882963 l
415.858551 180.52519 l
411.382271 179.410851 l
406.959977 178.537926 l
402.611154 177.904902 l
398.344997 177.507527 l
394.177693 177.341572 l
390.115796 177.401455 l
386.172426 177.681085 l
382.358756 178.173111 l
378.67088 178.872074 l
375.118314 179.770786 l
371.702932 180.863262 l
368.426295 182.143947 l
365.289687 183.607646 l
362.289308 185.252301 l
359.422438 187.076912 l
356.687338 189.081243 l
354.083097 191.265553 l
351.60598 193.633889 l
349.253938 196.190797 l
347.020503 198.948487 l
344.90509 201.915659 l
342.906338 205.104293 l
341.020794 208.53334 l
339.244688 212.228285 l
337.576859 216.215995 l
336.017194 220.527002 l
334.563766 225.205139 l
333.217946 230.295162 l
331.982663 235.848106 l
330.868851 241.891592 l
329.900709 248.381933 l
329.123767 255.096002 l
328.595559 261.563333 l
328.344911 267.283836 l
328.350856 272.052777 l
328.570534 275.944683 l
328.965561 279.121325 l
329.508285 281.736077 l
330.181941 283.915115 l
330.978424 285.753748 l
331.897404 287.323929 l
332.947265 288.681302 l
334.146562 289.868843 l
335.523671 290.917465 l
337.118787 291.848887 l
338.988983 292.678313 l
341.210098 293.414104 l
343.895865 294.062338 l
347.213347 294.625747 l
351.444844 295.108525 l
357.151041 295.522204 l
365.931907 295.912702 l
408.485073 297.563306 l
430.672976 298.488421 l
440.822536 298.683301 l
448.728088 298.619348 l
455.342404 298.34901 l
461.048579 297.898088 l
466.05149 297.284229 l
470.478996 296.521302 l
474.42022 295.620436 l
477.931063 294.59367 l
481.062267 293.449787 l
483.846449 292.199605 l
486.319355 290.848875 l
488.507152 289.403461 l
490.431061 287.868583 l
492.110792 286.246635 l
493.563872 284.53677 l
494.804994 282.734548 l
495.843449 280.835569 l
496.687354 278.8282 l
497.337733 276.705557 l
497.794115 274.453793 l
498.051763 272.055654 l
498.101297 269.496215 l
497.929502 266.752926 l
497.519105 263.807407 l
496.85009 260.641905 l
495.900953 257.241518 l
494.645229 253.582066 l
493.05932 249.65471 l
491.117833 245.447886 l
488.801441 240.965752 l
486.117397 236.261256 l
483.124442 231.465544 l
479.932239 226.76892 l
476.637419 222.314359 l
473.269885 218.133737 l
469.814668 214.197184 l
466.229397 210.449028 l
463.543581 207.841798 l
463.543581 207.841798 l
stroke
grestore
0.750 0.000 0.750 setrgbcolor
gsave
446.4 434.9 72 72 clipbox
254.161457 149.452569 m
246.461036 143.468258 l
240.96838 139.489127 l
235.6799 135.931824 l
230.348865 132.614126 l
224.877083 129.471529 l
219.220258 126.479605 l
213.333408 123.618207 l
207.18045 120.875911 l
200.72922 118.245621 l
193.915395 115.709481 l
186.597916 113.226171 l
178.380523 110.678511 l
158.076047 104.520606 l
156.020316 103.583052 l
154.884001 102.84005 l
154.322845 102.228788 l
154.127585 101.709213 l
154.181525 101.232478 l
154.469263 100.743859 l
155.064569 100.19987 l
156.100506 99.575382 l
157.748392 98.858425 l
160.200983 98.047847 l
163.638066 97.157467 l
168.191125 96.216877 l
173.896453 95.272262 l
180.714848 94.374076 l
188.562108 93.568833 l
197.378968 92.891255 l
207.183015 92.364491 l
218.140363 92.002778 l
230.763993 91.815027 l
246.793267 91.812569 l
296.814777 91.957355 l
331.772622 91.816174 l
341.38162 92.052453 l
349.066496 92.457312 l
355.462761 93.0108 l
360.829766 93.692178 l
365.305753 94.477878 l
368.990518 95.343299 l
371.968144 96.263443 l
374.320383 97.214781 l
376.133153 98.178993 l
377.489157 99.143109 l
378.463968 100.099917 l
379.124269 101.050762 l
379.522302 102.006623 l
379.690518 102.986324 l
379.63964 104.013958 l
379.357994 105.120637 l
378.812329 106.338536 l
377.949885 107.702257 l
376.696523 109.253161 l
374.956525 111.039126 l
372.597976 113.128469 l
369.441184 115.615357 l
365.207915 118.654163 l
359.440435 122.505996 l
351.336769 127.634095 l
339.824379 134.641347 l
326.623958 142.421796 l
316.014397 148.432277 l
308.003713 152.726725 l
301.74013 155.842116 l
296.673514 158.122165 l
292.459244 159.782089 l
288.871425 160.963015 l
285.740483 161.76478 l
282.960588 162.251705 l
280.43713 162.471527 l
278.096923 162.45428 l
275.878887 162.216214 l
273.732808 161.762602 l
271.587806 161.080477 l
269.382267 160.142515 l
267.023813 158.892223 l
264.378164 157.229913 l
261.148232 154.923995 l
256.329156 151.177628 l
254.169312 149.458818 l
254.169312 149.458818 l
stroke
grestore
0.800 setlinewidth
0 setlinejoin
0.000 setgray
gsave
72 72 m
72 506.88 l
stroke
grestore
gsave
518.4 72 m
518.4 506.88 l
stroke
grestore
gsave
72 72 m
518.4 72 l
stroke
grestore
gsave
72 506.88 m
518.4 506.88 l
stroke
grestore
/DejaVuSans findfont
12.000 scalefont
setfont
gsave
243.489062 512.880000 translate
0.000000 rotate
0.000000 0 m /N glyphshow
8.976562 0 m /o glyphshow
16.318359 0 m /d glyphshow
23.935547 0 m /e glyphshow
31.318359 0 m /space glyphshow
35.132812 0 m /t glyphshow
39.837891 0 m /r glyphshow
44.771484 0 m /a glyphshow
52.125000 0 m /j glyphshow
55.458984 0 m /e glyphshow
62.841797 0 m /c glyphshow
69.439453 0 m /t glyphshow
74.144531 0 m /o glyphshow
81.486328 0 m /r glyphshow
86.419922 0 m /i glyphshow
89.753906 0 m /e glyphshow
97.136719 0 m /s glyphshow
grestore

end
showpage
