%!PS-Adobe-3.0 EPSF-3.0
%%Title: imgout/5_jansen-torques.eps
%%Creator: matplotlib version 3.3.2, http://matplotlib.org/
%%CreationDate: Wed Dec  9 12:57:10 2020
%%Orientation: portrait
%%BoundingBox: 18.0 252.0 594.0 540.0
%%EndComments
%%BeginProlog
/mpldict 8 dict def
mpldict begin
/m { moveto } bind def
/l { lineto } bind def
/r { rlineto } bind def
/c { curveto } bind def
/cl { closepath } bind def
/box {
      m
      1 index 0 r
      0 exch r
      neg 0 r
      cl
    } bind def
/clipbox {
      box
      clip
      newpath
    } bind def
%!PS-Adobe-3.0 Resource-Font
%%Title: DejaVu Sans
%%Copyright: Copyright (c) 2003 by Bitstream, Inc. All Rights Reserved. Copyright (c) 2006 by Tavmjong Bah. All Rights Reserved. DejaVu changes are in public domain 
%%Creator: Converted from TrueType to type 3 by PPR
25 dict begin
/_d{bind def}bind def
/_m{moveto}_d
/_l{lineto}_d
/_cl{closepath eofill}_d
/_c{curveto}_d
/_sc{7 -1 roll{setcachedevice}{pop pop pop pop pop pop}ifelse}_d
/_e{exec}_d
/FontName /DejaVuSans def
/PaintType 0 def
/FontMatrix[.001 0 0 .001 0 0]def
/FontBBox[-1021 -463 1793 1232]def
/FontType 3 def
/Encoding [ /space /parenleft /parenright /hyphen /period /zero /one /two /three /four /six /eight /C /G /I /L /N /T /a /c /d /e /f /i /l /m /n /o /q /r /s /t /u /v /minus ] def
/FontInfo 10 dict dup begin
/FamilyName (DejaVu Sans) def
/FullName (DejaVu Sans) def
/Notice (Copyright (c) 2003 by Bitstream, Inc. All Rights Reserved. Copyright (c) 2006 by Tavmjong Bah. All Rights Reserved. DejaVu changes are in public domain ) def
/Weight (Book) def
/Version (Version 2.35) def
/ItalicAngle 0.0 def
/isFixedPitch false def
/UnderlinePosition -130 def
/UnderlineThickness 90 def
end readonly def
/CharStrings 36 dict dup begin
/.notdef 0 def
/space{318 0 0 0 0 0 _sc
}_d
/parenleft{390 0 86 -131 310 759 _sc
310 759 _m
266 683 234 609 213 536 _c
191 463 181 389 181 314 _c
181 238 191 164 213 91 _c
234 17 266 -56 310 -131 _c
232 -131 _l
183 -54 146 20 122 94 _c
98 168 86 241 86 314 _c
86 386 98 459 122 533 _c
146 607 182 682 232 759 _c
310 759 _l
_cl}_d
/parenright{390 0 80 -131 304 759 _sc
80 759 _m
158 759 _l
206 682 243 607 267 533 _c
291 459 304 386 304 314 _c
304 241 291 168 267 94 _c
243 20 206 -54 158 -131 _c
80 -131 _l
123 -56 155 17 177 91 _c
198 164 209 238 209 314 _c
209 389 198 463 177 536 _c
155 609 123 683 80 759 _c
_cl}_d
/hyphen{361 0 49 234 312 314 _sc
49 314 _m
312 314 _l
312 234 _l
49 234 _l
49 314 _l
_cl}_d
/period{318 0 107 0 210 124 _sc
107 124 _m
210 124 _l
210 0 _l
107 0 _l
107 124 _l
_cl}_d
/zero{636 0 66 -13 570 742 _sc
318 664 _m
267 664 229 639 203 589 _c
177 539 165 464 165 364 _c
165 264 177 189 203 139 _c
229 89 267 64 318 64 _c
369 64 407 89 433 139 _c
458 189 471 264 471 364 _c
471 464 458 539 433 589 _c
407 639 369 664 318 664 _c
318 742 _m
399 742 461 709 505 645 _c
548 580 570 486 570 364 _c
570 241 548 147 505 83 _c
461 19 399 -13 318 -13 _c
236 -13 173 19 130 83 _c
87 147 66 241 66 364 _c
66 486 87 580 130 645 _c
173 709 236 742 318 742 _c
_cl}_d
/one{636 0 110 0 544 729 _sc
124 83 _m
285 83 _l
285 639 _l
110 604 _l
110 694 _l
284 729 _l
383 729 _l
383 83 _l
544 83 _l
544 0 _l
124 0 _l
124 83 _l
_cl}_d
/two{{636 0 73 0 536 742 _sc
192 83 _m
536 83 _l
536 0 _l
73 0 _l
73 83 _l
110 121 161 173 226 239 _c
290 304 331 346 348 365 _c
380 400 402 430 414 455 _c
426 479 433 504 433 528 _c
433 566 419 598 392 622 _c
365 646 330 659 286 659 _c
255 659 222 653 188 643 _c
154 632 117 616 78 594 _c
78 694 _l
118 710 155 722 189 730 _c
223 738 255 742 284 742 _c
}_e{359 742 419 723 464 685 _c
509 647 532 597 532 534 _c
532 504 526 475 515 449 _c
504 422 484 390 454 354 _c
446 344 420 317 376 272 _c
332 227 271 164 192 83 _c
_cl}_e}_d
/three{{636 0 76 -13 556 742 _sc
406 393 _m
453 383 490 362 516 330 _c
542 298 556 258 556 212 _c
556 140 531 84 482 45 _c
432 6 362 -13 271 -13 _c
240 -13 208 -10 176 -4 _c
144 1 110 10 76 22 _c
76 117 _l
103 101 133 89 166 81 _c
198 73 232 69 268 69 _c
330 69 377 81 409 105 _c
441 129 458 165 458 212 _c
458 254 443 288 413 312 _c
383 336 341 349 287 349 _c
}_e{202 349 _l
202 430 _l
291 430 _l
339 430 376 439 402 459 _c
428 478 441 506 441 543 _c
441 580 427 609 401 629 _c
374 649 336 659 287 659 _c
260 659 231 656 200 650 _c
169 644 135 635 98 623 _c
98 711 _l
135 721 170 729 203 734 _c
235 739 266 742 296 742 _c
370 742 429 725 473 691 _c
517 657 539 611 539 553 _c
539 513 527 479 504 451 _c
481 423 448 403 406 393 _c
_cl}_e}_d
/four{636 0 49 0 580 729 _sc
378 643 _m
129 254 _l
378 254 _l
378 643 _l
352 729 _m
476 729 _l
476 254 _l
580 254 _l
580 172 _l
476 172 _l
476 0 _l
378 0 _l
378 172 _l
49 172 _l
49 267 _l
352 729 _l
_cl}_d
/six{{636 0 70 -13 573 742 _sc
330 404 _m
286 404 251 388 225 358 _c
199 328 186 286 186 234 _c
186 181 199 139 225 109 _c
251 79 286 64 330 64 _c
374 64 409 79 435 109 _c
461 139 474 181 474 234 _c
474 286 461 328 435 358 _c
409 388 374 404 330 404 _c
526 713 _m
526 623 _l
501 635 476 644 451 650 _c
425 656 400 659 376 659 _c
310 659 260 637 226 593 _c
}_e{192 549 172 482 168 394 _c
187 422 211 444 240 459 _c
269 474 301 482 336 482 _c
409 482 467 459 509 415 _c
551 371 573 310 573 234 _c
573 159 550 99 506 54 _c
462 9 403 -13 330 -13 _c
246 -13 181 19 137 83 _c
92 147 70 241 70 364 _c
70 479 97 571 152 639 _c
206 707 280 742 372 742 _c
396 742 421 739 447 735 _c
472 730 498 723 526 713 _c
_cl}_e}_d
/eight{{636 0 68 -13 568 742 _sc
318 346 _m
271 346 234 333 207 308 _c
180 283 167 249 167 205 _c
167 161 180 126 207 101 _c
234 76 271 64 318 64 _c
364 64 401 76 428 102 _c
455 127 469 161 469 205 _c
469 249 455 283 429 308 _c
402 333 365 346 318 346 _c
219 388 _m
177 398 144 418 120 447 _c
96 476 85 511 85 553 _c
85 611 105 657 147 691 _c
188 725 245 742 318 742 _c
}_e{390 742 447 725 489 691 _c
530 657 551 611 551 553 _c
551 511 539 476 515 447 _c
491 418 459 398 417 388 _c
464 377 501 355 528 323 _c
554 291 568 251 568 205 _c
568 134 546 80 503 43 _c
459 5 398 -13 318 -13 _c
237 -13 175 5 132 43 _c
89 80 68 134 68 205 _c
68 251 81 291 108 323 _c
134 355 171 377 219 388 _c
183 544 _m
183 506 194 476 218 455 _c
}_e{242 434 275 424 318 424 _c
360 424 393 434 417 455 _c
441 476 453 506 453 544 _c
453 582 441 611 417 632 _c
393 653 360 664 318 664 _c
275 664 242 653 218 632 _c
194 611 183 582 183 544 _c
_cl}_e}_d
/C{{698 0 56 -13 644 742 _sc
644 673 _m
644 569 _l
610 599 575 622 537 638 _c
499 653 460 661 418 661 _c
334 661 270 635 226 584 _c
182 533 160 460 160 364 _c
160 268 182 194 226 143 _c
270 92 334 67 418 67 _c
460 67 499 74 537 90 _c
575 105 610 128 644 159 _c
644 56 _l
609 32 572 15 534 4 _c
496 -7 455 -13 412 -13 _c
302 -13 215 20 151 87 _c
}_e{87 154 56 246 56 364 _c
56 481 87 573 151 641 _c
215 708 302 742 412 742 _c
456 742 497 736 535 725 _c
573 713 610 696 644 673 _c
_cl}_e}_d
/G{{775 0 56 -13 693 742 _sc
595 104 _m
595 300 _l
434 300 _l
434 381 _l
693 381 _l
693 68 _l
655 40 613 20 567 7 _c
521 -6 472 -13 420 -13 _c
306 -13 216 20 152 86 _c
88 152 56 245 56 364 _c
56 482 88 575 152 642 _c
216 708 306 742 420 742 _c
467 742 512 736 555 724 _c
598 712 638 695 674 673 _c
674 568 _l
637 598 598 621 557 637 _c
516 653 473 661 428 661 _c
}_e{338 661 271 636 227 586 _c
182 536 160 462 160 364 _c
160 265 182 191 227 141 _c
271 91 338 67 428 67 _c
462 67 493 70 521 76 _c
549 82 573 91 595 104 _c
_cl}_e}_d
/I{295 0 98 0 197 729 _sc
98 729 _m
197 729 _l
197 0 _l
98 0 _l
98 729 _l
_cl}_d
/L{557 0 98 0 552 729 _sc
98 729 _m
197 729 _l
197 83 _l
552 83 _l
552 0 _l
98 0 _l
98 729 _l
_cl}_d
/N{748 0 98 0 650 729 _sc
98 729 _m
231 729 _l
554 119 _l
554 729 _l
650 729 _l
650 0 _l
517 0 _l
194 610 _l
194 0 _l
98 0 _l
98 729 _l
_cl}_d
/T{611 0 -2 0 614 729 _sc
-2 729 _m
614 729 _l
614 646 _l
355 646 _l
355 0 _l
256 0 _l
256 646 _l
-2 646 _l
-2 729 _l
_cl}_d
/a{{613 0 60 -13 522 560 _sc
343 275 _m
270 275 220 266 192 250 _c
164 233 150 205 150 165 _c
150 133 160 107 181 89 _c
202 70 231 61 267 61 _c
317 61 357 78 387 114 _c
417 149 432 196 432 255 _c
432 275 _l
343 275 _l
522 312 _m
522 0 _l
432 0 _l
432 83 _l
411 49 385 25 355 10 _c
325 -5 287 -13 243 -13 _c
187 -13 142 2 109 33 _c
76 64 60 106 60 159 _c
}_e{60 220 80 266 122 298 _c
163 329 224 345 306 345 _c
432 345 _l
432 354 _l
432 395 418 427 391 450 _c
364 472 326 484 277 484 _c
245 484 215 480 185 472 _c
155 464 127 453 100 439 _c
100 522 _l
132 534 164 544 195 550 _c
226 556 256 560 286 560 _c
365 560 424 539 463 498 _c
502 457 522 395 522 312 _c
_cl}_e}_d
/c{{550 0 55 -13 488 560 _sc
488 526 _m
488 442 _l
462 456 437 466 411 473 _c
385 480 360 484 334 484 _c
276 484 230 465 198 428 _c
166 391 150 339 150 273 _c
150 206 166 154 198 117 _c
230 80 276 62 334 62 _c
360 62 385 65 411 72 _c
437 79 462 90 488 104 _c
488 21 _l
462 9 436 0 410 -5 _c
383 -10 354 -13 324 -13 _c
242 -13 176 12 128 64 _c
}_e{79 115 55 185 55 273 _c
55 362 79 432 128 483 _c
177 534 244 560 330 560 _c
358 560 385 557 411 551 _c
437 545 463 537 488 526 _c
_cl}_e}_d
/d{{635 0 55 -13 544 760 _sc
454 464 _m
454 760 _l
544 760 _l
544 0 _l
454 0 _l
454 82 _l
435 49 411 25 382 10 _c
353 -5 319 -13 279 -13 _c
213 -13 159 13 117 65 _c
75 117 55 187 55 273 _c
55 359 75 428 117 481 _c
159 533 213 560 279 560 _c
319 560 353 552 382 536 _c
411 520 435 496 454 464 _c
148 273 _m
148 207 161 155 188 117 _c
215 79 253 61 301 61 _c
}_e{348 61 385 79 413 117 _c
440 155 454 207 454 273 _c
454 339 440 390 413 428 _c
385 466 348 485 301 485 _c
253 485 215 466 188 428 _c
161 390 148 339 148 273 _c
_cl}_e}_d
/e{{615 0 55 -13 562 560 _sc
562 296 _m
562 252 _l
149 252 _l
153 190 171 142 205 110 _c
238 78 284 62 344 62 _c
378 62 412 66 444 74 _c
476 82 509 95 541 113 _c
541 28 _l
509 14 476 3 442 -3 _c
408 -9 373 -13 339 -13 _c
251 -13 182 12 131 62 _c
80 112 55 181 55 268 _c
55 357 79 428 127 481 _c
175 533 241 560 323 560 _c
397 560 455 536 498 489 _c
}_e{540 441 562 377 562 296 _c
472 322 _m
471 371 457 410 431 440 _c
404 469 368 484 324 484 _c
274 484 234 469 204 441 _c
174 413 156 373 152 322 _c
472 322 _l
_cl}_e}_d
/f{352 0 23 0 371 760 _sc
371 760 _m
371 685 _l
285 685 _l
253 685 230 678 218 665 _c
205 652 199 629 199 595 _c
199 547 _l
347 547 _l
347 477 _l
199 477 _l
199 0 _l
109 0 _l
109 477 _l
23 477 _l
23 547 _l
109 547 _l
109 585 _l
109 645 123 690 151 718 _c
179 746 224 760 286 760 _c
371 760 _l
_cl}_d
/i{278 0 94 0 184 760 _sc
94 547 _m
184 547 _l
184 0 _l
94 0 _l
94 547 _l
94 760 _m
184 760 _l
184 646 _l
94 646 _l
94 760 _l
_cl}_d
/l{278 0 94 0 184 760 _sc
94 760 _m
184 760 _l
184 0 _l
94 0 _l
94 760 _l
_cl}_d
/m{{974 0 91 0 889 560 _sc
520 442 _m
542 482 569 511 600 531 _c
631 550 668 560 711 560 _c
767 560 811 540 842 500 _c
873 460 889 403 889 330 _c
889 0 _l
799 0 _l
799 327 _l
799 379 789 418 771 444 _c
752 469 724 482 686 482 _c
639 482 602 466 575 435 _c
548 404 535 362 535 309 _c
535 0 _l
445 0 _l
445 327 _l
445 379 435 418 417 444 _c
398 469 369 482 331 482 _c
}_e{285 482 248 466 221 435 _c
194 404 181 362 181 309 _c
181 0 _l
91 0 _l
91 547 _l
181 547 _l
181 462 _l
201 495 226 520 255 536 _c
283 552 317 560 357 560 _c
397 560 430 550 458 530 _c
486 510 506 480 520 442 _c
_cl}_e}_d
/n{634 0 91 0 549 560 _sc
549 330 _m
549 0 _l
459 0 _l
459 327 _l
459 379 448 417 428 443 _c
408 469 378 482 338 482 _c
289 482 251 466 223 435 _c
195 404 181 362 181 309 _c
181 0 _l
91 0 _l
91 547 _l
181 547 _l
181 462 _l
202 494 227 519 257 535 _c
286 551 320 560 358 560 _c
420 560 468 540 500 501 _c
532 462 549 405 549 330 _c
_cl}_d
/o{612 0 55 -13 557 560 _sc
306 484 _m
258 484 220 465 192 427 _c
164 389 150 338 150 273 _c
150 207 163 156 191 118 _c
219 80 257 62 306 62 _c
354 62 392 80 420 118 _c
448 156 462 207 462 273 _c
462 337 448 389 420 427 _c
392 465 354 484 306 484 _c
306 560 _m
384 560 445 534 490 484 _c
534 433 557 363 557 273 _c
557 183 534 113 490 63 _c
445 12 384 -13 306 -13 _c
227 -13 165 12 121 63 _c
77 113 55 183 55 273 _c
55 363 77 433 121 484 _c
165 534 227 560 306 560 _c
_cl}_d
/q{{635 0 55 -207 544 560 _sc
148 273 _m
148 207 161 155 188 117 _c
215 79 253 61 301 61 _c
348 61 385 79 413 117 _c
440 155 454 207 454 273 _c
454 339 440 390 413 428 _c
385 466 348 485 301 485 _c
253 485 215 466 188 428 _c
161 390 148 339 148 273 _c
454 82 _m
435 49 411 25 382 10 _c
353 -5 319 -13 279 -13 _c
213 -13 159 13 117 65 _c
75 117 55 187 55 273 _c
}_e{55 359 75 428 117 481 _c
159 533 213 560 279 560 _c
319 560 353 552 382 536 _c
411 520 435 496 454 464 _c
454 547 _l
544 547 _l
544 -207 _l
454 -207 _l
454 82 _l
_cl}_e}_d
/r{411 0 91 0 411 560 _sc
411 463 _m
401 469 390 473 378 476 _c
366 478 353 480 339 480 _c
288 480 249 463 222 430 _c
194 397 181 350 181 288 _c
181 0 _l
91 0 _l
91 547 _l
181 547 _l
181 462 _l
199 495 224 520 254 536 _c
284 552 321 560 365 560 _c
371 560 378 559 386 559 _c
393 558 401 557 411 555 _c
411 463 _l
_cl}_d
/s{{521 0 54 -13 472 560 _sc
443 531 _m
443 446 _l
417 458 391 468 364 475 _c
336 481 308 485 279 485 _c
234 485 200 478 178 464 _c
156 450 145 430 145 403 _c
145 382 153 366 169 354 _c
185 342 217 330 265 320 _c
296 313 _l
360 299 405 279 432 255 _c
458 230 472 195 472 151 _c
472 100 452 60 412 31 _c
372 1 316 -13 246 -13 _c
216 -13 186 -10 154 -5 _c
}_e{122 0 89 8 54 20 _c
54 113 _l
87 95 120 82 152 74 _c
184 65 216 61 248 61 _c
290 61 323 68 346 82 _c
368 96 380 117 380 144 _c
380 168 371 187 355 200 _c
339 213 303 226 247 238 _c
216 245 _l
160 257 119 275 95 299 _c
70 323 58 356 58 399 _c
58 450 76 490 112 518 _c
148 546 200 560 268 560 _c
301 560 332 557 362 552 _c
391 547 418 540 443 531 _c
}_e{_cl}_e}_d
/t{392 0 27 0 368 702 _sc
183 702 _m
183 547 _l
368 547 _l
368 477 _l
183 477 _l
183 180 _l
183 135 189 106 201 94 _c
213 81 238 75 276 75 _c
368 75 _l
368 0 _l
276 0 _l
206 0 158 13 132 39 _c
106 65 93 112 93 180 _c
93 477 _l
27 477 _l
27 547 _l
93 547 _l
93 702 _l
183 702 _l
_cl}_d
/u{634 0 85 -13 543 560 _sc
85 216 _m
85 547 _l
175 547 _l
175 219 _l
175 167 185 129 205 103 _c
225 77 255 64 296 64 _c
344 64 383 79 411 110 _c
439 141 453 183 453 237 _c
453 547 _l
543 547 _l
543 0 _l
453 0 _l
453 84 _l
431 50 405 26 377 10 _c
348 -5 315 -13 277 -13 _c
214 -13 166 6 134 45 _c
101 83 85 140 85 216 _c
311 560 _m
311 560 _l
_cl}_d
/v{592 0 30 0 562 547 _sc
30 547 _m
125 547 _l
296 88 _l
467 547 _l
562 547 _l
357 0 _l
235 0 _l
30 547 _l
_cl}_d
/minus{838 0 106 272 732 355 _sc
106 355 _m
732 355 _l
732 272 _l
106 272 _l
106 355 _l
_cl}_d
end readonly def

/BuildGlyph
 {exch begin
 CharStrings exch
 2 copy known not{pop /.notdef}if
 true 3 1 roll get exec
 end}_d

/BuildChar {
 1 index /Encoding get exch get
 1 index /BuildGlyph get exec
}_d

FontName currentdict end definefont pop
end
%%EndProlog
mpldict begin
18 252 translate
576 288 0 0 clipbox
gsave
0 0 m
576 0 l
576 288 l
0 288 l
cl
grestore
gsave
72 36 m
518.4 36 l
518.4 253.44 l
72 253.44 l
cl
1.000 setgray
fill
grestore
0.800 setlinewidth
1 setlinejoin
0 setlinecap
[] 0 setdash
0.000 setgray
gsave
/o {
gsave
newpath
translate
0.8 setlinewidth
1 setlinejoin
0 setlinecap
0 0 m
0 -3.5 l

gsave
0.000 setgray
fill
grestore
stroke
grestore
} bind def
92.2909 36 o
grestore
/DejaVuSans findfont
10.000 scalefont
setfont
gsave
84.337784 21.406250 translate
0.000000 rotate
0.000000 0 m /zero glyphshow
6.362305 0 m /period glyphshow
9.541016 0 m /zero glyphshow
grestore
gsave
/o {
gsave
newpath
translate
0.8 setlinewidth
1 setlinejoin
0 setlinecap
0 0 m
0 -3.5 l

gsave
0.000 setgray
fill
grestore
stroke
grestore
} bind def
174.821 36 o
grestore
gsave
166.867417 21.406250 translate
0.000000 rotate
0.000000 0 m /zero glyphshow
6.362305 0 m /period glyphshow
9.541016 0 m /two glyphshow
grestore
gsave
/o {
gsave
newpath
translate
0.8 setlinewidth
1 setlinejoin
0 setlinecap
0 0 m
0 -3.5 l

gsave
0.000 setgray
fill
grestore
stroke
grestore
} bind def
257.35 36 o
grestore
gsave
249.397050 21.406250 translate
0.000000 rotate
0.000000 0 m /zero glyphshow
6.362305 0 m /period glyphshow
9.541016 0 m /four glyphshow
grestore
gsave
/o {
gsave
newpath
translate
0.8 setlinewidth
1 setlinejoin
0 setlinecap
0 0 m
0 -3.5 l

gsave
0.000 setgray
fill
grestore
stroke
grestore
} bind def
339.88 36 o
grestore
gsave
331.926683 21.406250 translate
0.000000 rotate
0.000000 0 m /zero glyphshow
6.362305 0 m /period glyphshow
9.541016 0 m /six glyphshow
grestore
gsave
/o {
gsave
newpath
translate
0.8 setlinewidth
1 setlinejoin
0 setlinecap
0 0 m
0 -3.5 l

gsave
0.000 setgray
fill
grestore
stroke
grestore
} bind def
422.409 36 o
grestore
gsave
414.456316 21.406250 translate
0.000000 rotate
0.000000 0 m /zero glyphshow
6.362305 0 m /period glyphshow
9.541016 0 m /eight glyphshow
grestore
gsave
/o {
gsave
newpath
translate
0.8 setlinewidth
1 setlinejoin
0 setlinecap
0 0 m
0 -3.5 l

gsave
0.000 setgray
fill
grestore
stroke
grestore
} bind def
504.939 36 o
grestore
gsave
496.985949 21.406250 translate
0.000000 rotate
0.000000 0 m /one glyphshow
6.362305 0 m /period glyphshow
9.541016 0 m /zero glyphshow
grestore
gsave
275.785937 7.734375 translate
0.000000 rotate
0.000000 0 m /t glyphshow
3.920898 0 m /i glyphshow
6.699219 0 m /m glyphshow
16.440430 0 m /e glyphshow
22.592773 0 m /space glyphshow
25.771484 0 m /parenleft glyphshow
29.672852 0 m /s glyphshow
34.882812 0 m /parenright glyphshow
grestore
gsave
/o {
gsave
newpath
translate
0.8 setlinewidth
1 setlinejoin
0 setlinecap
-0 0 m
-3.5 0 l

gsave
0.000 setgray
fill
grestore
stroke
grestore
} bind def
72 45.9587 o
grestore
gsave
50.265625 42.161865 translate
0.000000 rotate
0.000000 0 m /minus glyphshow
8.378906 0 m /four glyphshow
grestore
gsave
/o {
gsave
newpath
translate
0.8 setlinewidth
1 setlinejoin
0 setlinecap
-0 0 m
-3.5 0 l

gsave
0.000 setgray
fill
grestore
stroke
grestore
} bind def
72 73.5525 o
grestore
gsave
50.265625 69.755589 translate
0.000000 rotate
0.000000 0 m /minus glyphshow
8.378906 0 m /three glyphshow
grestore
gsave
/o {
gsave
newpath
translate
0.8 setlinewidth
1 setlinejoin
0 setlinecap
-0 0 m
-3.5 0 l

gsave
0.000 setgray
fill
grestore
stroke
grestore
} bind def
72 101.146 o
grestore
gsave
50.265625 97.349313 translate
0.000000 rotate
0.000000 0 m /minus glyphshow
8.378906 0 m /two glyphshow
grestore
gsave
/o {
gsave
newpath
translate
0.8 setlinewidth
1 setlinejoin
0 setlinecap
-0 0 m
-3.5 0 l

gsave
0.000 setgray
fill
grestore
stroke
grestore
} bind def
72 128.74 o
grestore
gsave
50.265625 124.943036 translate
0.000000 rotate
0.000000 0 m /minus glyphshow
8.378906 0 m /one glyphshow
grestore
gsave
/o {
gsave
newpath
translate
0.8 setlinewidth
1 setlinejoin
0 setlinecap
-0 0 m
-3.5 0 l

gsave
0.000 setgray
fill
grestore
stroke
grestore
} bind def
72 156.334 o
grestore
gsave
58.640625 152.536760 translate
0.000000 rotate
0.000000 0 m /zero glyphshow
grestore
gsave
/o {
gsave
newpath
translate
0.8 setlinewidth
1 setlinejoin
0 setlinecap
-0 0 m
-3.5 0 l

gsave
0.000 setgray
fill
grestore
stroke
grestore
} bind def
72 183.927 o
grestore
gsave
58.640625 180.130484 translate
0.000000 rotate
0.000000 0 m /one glyphshow
grestore
gsave
/o {
gsave
newpath
translate
0.8 setlinewidth
1 setlinejoin
0 setlinecap
-0 0 m
-3.5 0 l

gsave
0.000 setgray
fill
grestore
stroke
grestore
} bind def
72 211.521 o
grestore
gsave
58.640625 207.724208 translate
0.000000 rotate
0.000000 0 m /two glyphshow
grestore
gsave
/o {
gsave
newpath
translate
0.8 setlinewidth
1 setlinejoin
0 setlinecap
-0 0 m
-3.5 0 l

gsave
0.000 setgray
fill
grestore
stroke
grestore
} bind def
72 239.115 o
grestore
gsave
58.640625 235.317931 translate
0.000000 rotate
0.000000 0 m /three glyphshow
grestore
gsave
44.187500 113.946562 translate
90.000000 rotate
0.000000 0 m /T glyphshow
4.358398 0 m /o glyphshow
10.476562 0 m /r glyphshow
14.462891 0 m /q glyphshow
20.810547 0 m /u glyphshow
27.148438 0 m /e glyphshow
33.300781 0 m /space glyphshow
36.479492 0 m /parenleft glyphshow
40.380859 0 m /N glyphshow
47.861328 0 m /m glyphshow
57.602539 0 m /parenright glyphshow
grestore
1.500 setlinewidth
2 setlinecap
1.000 0.000 0.000 setrgbcolor
gsave
446.4 217.4 72 36 clipbox
92.290909 156.333635 m
92.404539 155.861015 l
115.402486 155.994665 l
178.069556 156.459376 l
207.92184 156.385391 l
241.450873 156.073347 l
279.845716 155.489462 l
327.489247 154.526957 l
387.692976 153.335639 l
396.649473 153.198178 l
396.767161 153.979553 l
402.866669 154.276438 l
406.174121 154.213406 l
408.889071 153.9435 l
411.299656 153.482988 l
413.531678 152.831718 l
415.662245 151.97828 l
417.731938 150.908843 l
419.777282 149.600017 l
421.818568 148.027401 l
423.86797 146.164409 l
425.917373 143.997087 l
427.942426 141.528781 l
429.910663 138.776859 l
431.78962 135.765336 l
433.559005 132.506365 l
435.21476 128.986424 l
436.765001 125.163348 l
438.230019 120.950153 l
439.62199 116.259083 l
440.957145 110.964489 l
442.251718 104.901281 l
443.513825 97.897957 l
444.751583 89.741892 l
445.96905 80.201058 l
447.1784 68.91585 l
448.010335 59.915574 l
448.014394 243.556364 l
448.123966 241.88112 l
449.264326 226.308333 l
450.388454 213.896819 l
451.496348 204.043634 l
452.58801 196.251624 l
453.667497 190.091572 l
454.73481 185.241546 l
455.794006 181.423276 l
456.853202 178.406824 l
457.920514 176.016271 l
459.012176 174.102372 l
460.148479 172.550363 l
461.370004 171.255799 l
462.741683 170.128935 l
464.401496 169.062114 l
466.779614 167.821614 l
475.833508 163.292399 l
481.685465 160.317943 l
484.891461 158.947735 l
487.752507 157.964067 l
490.520215 157.246805 l
493.344738 156.745808 l
496.372172 156.438376 l
498.109091 156.351659 l
498.109091 156.351659 l
stroke
grestore
0.000 0.000 1.000 setrgbcolor
gsave
446.4 217.4 72 36 clipbox
92.290909 156.333635 m
92.404539 156.766791 l
263.698049 156.691412 l
423.717816 156.914745 l
429.488608 157.247588 l
434.216437 157.73679 l
438.165088 158.362685 l
441.460364 159.103879 l
444.236189 159.950766 l
446.610249 160.90299 l
448.010335 161.595266 l
448.123966 159.787835 l
450.112495 159.200573 l
452.54337 158.723474 l
455.802122 158.324983 l
461.146801 157.924707 l
473.593369 157.259832 l
483.657761 156.925947 l
495.329209 156.7805 l
498.109091 156.766919 l
498.109091 156.766919 l
stroke
grestore
0.000 0.500 0.000 setrgbcolor
gsave
446.4 217.4 72 36 clipbox
92.290909 156.333635 m
92.404539 156.558275 l
123.51893 156.484221 l
219.398493 156.368816 l
337.610453 156.049455 l
373.720516 156.247254 l
396.653531 156.455502 l
396.767161 156.815124 l
401.97386 157.401687 l
405.131157 157.536854 l
407.716245 157.430012 l
410.001024 157.116073 l
412.099125 156.605138 l
414.083596 155.89324 l
415.995019 154.970639 l
417.869918 153.816799 l
419.728583 152.409062 l
421.587249 150.719085 l
423.45809 148.712964 l
425.337047 146.367218 l
427.216004 143.660898 l
429.078728 140.582789 l
430.90087 137.137035 l
432.662138 133.325376 l
434.350359 129.134984 l
435.957415 124.544096 l
437.491423 119.479225 l
438.956441 113.863742 l
440.364644 107.571076 l
441.728207 100.438749 l
443.055246 92.284054 l
444.349819 82.912107 l
445.624101 72.018795 l
446.878091 59.338247 l
448.010335 45.883636 l
448.014394 231.05933 l
448.123966 229.513396 l
449.23186 215.59757 l
450.319464 204.623565 l
451.386776 196.014762 l
452.433798 189.299209 l
453.464586 184.073591 l
454.475084 180.050808 l
455.473406 176.952557 l
456.463613 174.578859 l
457.449761 172.77213 l
458.448083 171.392854 l
459.48293 170.334719 l
460.590825 169.517577 l
461.844816 168.872808 l
463.395056 168.336678 l
465.866514 167.750844 l
469.815164 166.788762 l
472.521999 165.878811 l
475.581898 164.603691 l
487.391326 159.422472 l
490.39441 158.508698 l
493.369087 157.836607 l
496.493918 157.361317 l
498.109091 157.195713 l
498.109091 157.195713 l
stroke
grestore
0.000 0.750 0.750 setrgbcolor
gsave
446.4 217.4 72 36 clipbox
92.290909 156.333635 m
92.294967 155.489696 l
92.404539 155.49124 l
145.859445 156.133255 l
181.125397 156.321629 l
215.737976 156.282558 l
252.00631 156.016522 l
291.578037 155.499693 l
338.677766 154.651528 l
399.271084 153.338124 l
406.433847 153.018812 l
411.750118 152.99727 l
416.137057 153.196153 l
419.939611 153.586792 l
423.332285 154.155583 l
426.420592 154.896241 l
429.277581 155.808184 l
431.956008 156.895429 l
434.492397 158.164371 l
436.919214 159.627132 l
439.260808 161.298891 l
441.537471 163.199099 l
443.765435 165.350839 l
445.956875 167.779762 l
448.010335 170.365573 l
448.123966 168.701359 l
450.299173 166.314727 l
452.502788 164.223632 l
454.746985 162.398008 l
457.047997 160.81108 l
459.426115 159.440309 l
461.905689 158.267875 l
464.515126 157.280752 l
467.299066 156.467267 l
470.306209 155.822918 l
473.613661 155.345179 l
477.339109 155.036517 l
481.689523 154.906089 l
487.099134 154.976969 l
495.081657 155.327669 l
498.109091 155.489582 l
498.109091 155.489582 l
stroke
grestore
0.750 0.000 0.750 setrgbcolor
gsave
446.4 217.4 72 36 clipbox
92.290909 156.333635 m
92.404539 156.47877 l
126.177066 156.348123 l
214.049756 156.334621 l
340.779925 156.239457 l
396.649473 155.904189 l
396.763103 156.333635 l
498.109091 156.333635 l
498.109091 156.333635 l
stroke
grestore
0 setlinecap
[5.55 2.4] 0 setdash
0.000 setgray
gsave
446.4 217.4 72 36 clipbox
396.653531 36 m
396.653531 253.44 l
stroke
grestore
0.800 setlinewidth
0 setlinejoin
2 setlinecap
[] 0 setdash
gsave
72 36 m
72 253.44 l
stroke
grestore
gsave
518.4 36 m
518.4 253.44 l
stroke
grestore
gsave
72 36 m
518.4 36 l
stroke
grestore
gsave
72 253.44 m
518.4 253.44 l
stroke
grestore
/DejaVuSans findfont
12.000 scalefont
setfont
gsave
213.809375 259.440000 translate
0.000000 rotate
0.000000 0 m /T glyphshow
5.330078 0 m /o glyphshow
12.671875 0 m /r glyphshow
17.355469 0 m /q glyphshow
24.972656 0 m /u glyphshow
32.578125 0 m /e glyphshow
39.960938 0 m /s glyphshow
46.212891 0 m /space glyphshow
50.027344 0 m /a glyphshow
57.380859 0 m /s glyphshow
63.632812 0 m /space glyphshow
67.447266 0 m /f glyphshow
71.671875 0 m /u glyphshow
79.277344 0 m /n glyphshow
86.882812 0 m /c glyphshow
93.480469 0 m /t glyphshow
98.185547 0 m /i glyphshow
101.519531 0 m /o glyphshow
108.861328 0 m /n glyphshow
116.466797 0 m /space glyphshow
120.281250 0 m /o glyphshow
127.623047 0 m /f glyphshow
131.847656 0 m /space glyphshow
135.662109 0 m /t glyphshow
140.367188 0 m /i glyphshow
143.701172 0 m /m glyphshow
155.390625 0 m /e glyphshow
grestore
1.000 setlinewidth
0 setlinecap
0.800 setgray
gsave
79 172.080625 m
198.3125 172.080625 l
199.645833 172.080625 200.3125 172.747292 200.3125 174.080625 c
200.3125 246.44 l
200.3125 247.773333 199.645833 248.44 198.3125 248.44 c
79 248.44 l
77.666667 248.44 77 247.773333 77 246.44 c
77 174.080625 l
77 172.747292 77.666667 172.080625 79 172.080625 c
cl
gsave
1.000 setgray
fill
grestore
stroke
grestore
1.500 setlinewidth
1 setlinejoin
2 setlinecap
1.000 0.000 0.000 setrgbcolor
gsave
81 240.34625 m
101 240.34625 l
stroke
grestore
0.000 setgray
/DejaVuSans findfont
10.000 scalefont
setfont
gsave
109.000000 236.846250 translate
0.000000 rotate
0.000000 0 m /T glyphshow
4.358398 0 m /o glyphshow
10.476562 0 m /t glyphshow
14.397461 0 m /a glyphshow
20.525391 0 m /l glyphshow
23.303711 0 m /space glyphshow
26.482422 0 m /t glyphshow
30.403320 0 m /o glyphshow
36.521484 0 m /r glyphshow
40.507812 0 m /q glyphshow
46.855469 0 m /u glyphshow
53.193359 0 m /e glyphshow
grestore
0.000 0.000 1.000 setrgbcolor
gsave
81 225.674375 m
101 225.674375 l
stroke
grestore
0.000 setgray
gsave
109.000000 222.174375 translate
0.000000 rotate
0.000000 0 m /I glyphshow
2.949219 0 m /n glyphshow
9.287109 0 m /e glyphshow
15.439453 0 m /r glyphshow
19.550781 0 m /t glyphshow
23.471680 0 m /i glyphshow
26.250000 0 m /a glyphshow
32.377930 0 m /l glyphshow
grestore
0.000 0.500 0.000 setrgbcolor
gsave
81 211.0025 m
101 211.0025 l
stroke
grestore
0.000 setgray
gsave
109.000000 207.502500 translate
0.000000 rotate
0.000000 0 m /N glyphshow
7.480469 0 m /o glyphshow
13.598633 0 m /n glyphshow
19.936523 0 m /hyphen glyphshow
23.544922 0 m /L glyphshow
29.116211 0 m /i glyphshow
31.894531 0 m /n glyphshow
38.232422 0 m /e glyphshow
44.384766 0 m /a glyphshow
50.512695 0 m /r glyphshow
54.624023 0 m /space glyphshow
57.802734 0 m /T glyphshow
62.161133 0 m /e glyphshow
68.313477 0 m /r glyphshow
72.299805 0 m /m glyphshow
82.041016 0 m /s glyphshow
grestore
0.000 0.750 0.750 setrgbcolor
gsave
81 196.330625 m
101 196.330625 l
stroke
grestore
0.000 setgray
gsave
109.000000 192.830625 translate
0.000000 rotate
0.000000 0 m /G glyphshow
7.749023 0 m /r glyphshow
11.860352 0 m /a glyphshow
17.988281 0 m /v glyphshow
23.906250 0 m /i glyphshow
26.684570 0 m /t glyphshow
30.605469 0 m /a glyphshow
36.733398 0 m /t glyphshow
40.654297 0 m /i glyphshow
43.432617 0 m /o glyphshow
49.550781 0 m /n glyphshow
55.888672 0 m /a glyphshow
62.016602 0 m /l glyphshow
grestore
0.750 0.000 0.750 setrgbcolor
gsave
81 181.65875 m
101 181.65875 l
stroke
grestore
0.000 setgray
gsave
109.000000 178.158750 translate
0.000000 rotate
0.000000 0 m /G glyphshow
7.749023 0 m /r glyphshow
11.610352 0 m /o glyphshow
17.728516 0 m /u glyphshow
24.066406 0 m /n glyphshow
30.404297 0 m /d glyphshow
36.751953 0 m /space glyphshow
39.930664 0 m /C glyphshow
46.913086 0 m /o glyphshow
53.031250 0 m /n glyphshow
59.369141 0 m /t glyphshow
63.290039 0 m /a glyphshow
69.417969 0 m /c glyphshow
74.916016 0 m /t glyphshow
grestore

end
showpage
